{
  "project_info": {
    "project_number": "38614036963",
    "firebase_url": "https://fooddataviewer.firebaseio.com",
    "project_id": "fooddataviewer",
    "storage_bucket": "fooddataviewer.appspot.com"
  },
  "client": [
    {
      "client_info": {
        "mobilesdk_app_id": "1:38614036963:android:7e43929ef8cd2479",
        "android_client_info": {
          "package_name": "com.example.fooddataviewer"
        }
      },
      "oauth_client": [
        {
          "client_id": "38614036963-cgojbl4qipiiticsl0ndb0jisjh9e5r5.apps.googleusercontent.com",
          "client_type": 3
        }
      ],
      "api_key": [
        {
          "current_key": "AIzaSyAf2FVdc65gQ-RSD2ZqjYC1f_8qZzRFbO0"
        }
      ],
      "services": {
        "appinvite_service": {
          "other_platform_oauth_client": [
            {
              "client_id": "38614036963-cgojbl4qipiiticsl0ndb0jisjh9e5r5.apps.googleusercontent.com",
              "client_type": 3
            }
          ]
        }
      }
    },
    {
      "client_info": {
        "mobilesdk_app_id": "1:38614036963:android:7e3a6b6cf0acd1b88f70d6",
        "android_client_info": {
          "package_name": "com.example.fooddataviewer.instrumented"
        }
      },
      "oauth_client": [
        {
          "client_id": "38614036963-cgojbl4qipiiticsl0ndb0jisjh9e5r5.apps.googleusercontent.com",
          "client_type": 3
        }
      ],
      "api_key": [
        {
          "current_key": "AIzaSyAf2FVdc65gQ-RSD2ZqjYC1f_8qZzRFbO0"
        }
      ],
      "services": {
        "appinvite_service": {
          "other_platform_oauth_client": [
            {
              "client_id": "38614036963-cgojbl4qipiiticsl0ndb0jisjh9e5r5.apps.googleusercontent.com",
              "client_type": 3
            }
          ]
        }
      }
    }
  ],
  "configuration_version": "1"
}